Challenge B
…
step 3 : plot highflex and lowflex in the training data

df <- df %>% mutate(y.ll.lowflex = predict(object = ll.fit.lowflex, newdata = df), y.ll.highflex = predict(object = ll.fit.highflex, newdata = df))

training <- training %>% mutate(y.ll.lowflex = predict(object = ll.fit.lowflex, newdata = training), y.ll.highflex = predict(object = ll.fit.highflex, newdata = training))

training

## # A tibble: 122 x 7
##              y          x       y.true which.data       y.lm y.ll.lowflex
##          <dbl>      <dbl>        <dbl>      <chr>      <dbl>        <dbl>
##  1  0.20433883 -0.6264538 -0.245848275   training -1.3363726 -0.200217871
##  2 -0.01236649  0.1836433  0.006193347   training  0.6439806  0.182352673
##  3  3.13050121  1.5952808  4.059863355   training  4.0948517  3.023714572
##  4 -1.45168388  0.3295078  0.035776429   training  1.0005590  0.236226060
##  5 -1.62750566 -0.8204684 -0.552313364   training -1.8106582 -0.425804071
##  6  1.11583565  0.4874291  0.115806846   training  1.3866113  0.310101940
##  7 -0.21878864  0.7383247  0.402478052   training  1.9999477  0.498338173
##  8 -1.19354142  0.5757814  0.190885432   training  1.6025962  0.363540869
##  9  1.84080947 -0.3053884 -0.028481152   training -0.5515002  0.007813978
## 10 -0.17939960  0.3898432  0.059247498   training  1.1480543  0.261909431
## # ... with 112 more rows, and 1 more variables: y.ll.highflex <dbl>

test <- test %>% mutate(y.ll.lowflex = predict(object = ll.fit.lowflex, newdata = test), y.ll.highflex = predict(object = ll.fit.highflex, newdata = test))

test

## # A tibble: 28 x 6
##             y          x       y.true which.data y.ll.lowflex
##         <dbl>      <dbl>        <dbl>      <chr>        <dbl>
##  1 -0.9015671 -0.8356286 -0.583498718       test  -0.44815580
##  2  3.8802495  1.5117812  3.455149104       test   2.60289580
##  3  0.8187215 -0.6212406 -0.239761502       test  -0.19548025
##  4 -0.5837001  0.9438362  0.840794584       test   0.77420576
##  5  0.4094355  0.8212212  0.553835065       test   0.59241185
##  6  0.9008803  1.1000254  1.331092102       test   1.09962838
##  7  0.6575602  1.4330237  2.942795753       test   2.23958632
##  8  0.5076451 -0.1350546 -0.002463362       test   0.07595184
##  9 10.2105426  2.1726117 10.255251705       test   6.57995968
## 10 -1.6257013  0.4755095  0.107517132       test   0.30368108
## # ... with 18 more rows, and 1 more variables: y.ll.highflex <dbl>
…
Step 9: Compute for each bandwidth the MSE-test

mse.test <- function(fit.model){
  predictions <- predict(object = fit.model, newdata = test)
  test %>% mutate(squared.error = (y - predictions)^2) %>% summarize(mse = mean(squared.error))
}
mse.test.results <- unlist(lapply(X = llbw.fit, FUN = mse.test))
head (mse.test.results)

##      mse      mse      mse      mse      mse      mse 
## 2.257278 2.189654 2.126863 2.071231 2.023309 1.982573

Step 10 : Plot

## # A tibble: 491 x 3
##    bandwidth mse.train mse.test
##        <dbl>     <dbl>    <dbl>
##  1     0.010 0.3460818 2.257278
##  2     0.011 0.3708529 2.189654
##  3     0.012 0.3947976 2.126863
##  4     0.013 0.4181274 2.071231
##  5     0.014 0.4408973 2.023309
##  6     0.015 0.4630605 1.982573
##  7     0.016 0.4845110 1.947912
##  8     0.017 0.5051165 1.917947
##  9     0.018 0.5247438 1.891276
## 10     0.019 0.5432788 1.866645
## # ... with 481 more rows
…
